<?xml version="1.0" encoding="utf-8"?>
<!-- Generator: Adobe Illustrator 26.1.0, SVG Export Plug-In . SVG Version: 6.00 Build 0)  -->
<svg version="1.1"
	 id="svg2" xmlns:cc="http://creativecommons.org/ns#" xmlns:dc="http://purl.org/dc/elements/1.1/" xmlns:inkscape="http://www.inkscape.org/namespaces/inkscape" xmlns:rdf="http://www.w3.org/1999/02/22-rdf-syntax-ns#" xmlns:sodipodi="http://sodipodi.sourceforge.net/DTD/sodipodi-0.dtd" xmlns:svg="http://www.w3.org/2000/svg"
	 xmlns="http://www.w3.org/2000/svg" xmlns:xlink="http://www.w3.org/1999/xlink" x="0px" y="0px" viewBox="0 0 30 30"
	 style="enable-background:new 0 0 30 30;" xml:space="preserve">
<style type="text/css">
	.st0{fill:#1D1F2A;stroke:#1D1F2A;stroke-width:2;stroke-linecap:round;stroke-linejoin:round;}
</style>
<sodipodi:namedview  borderopacity="1.0" id="base" inkscape:current-layer="layer1" inkscape:cx="31.65919" inkscape:cy="23.730414" inkscape:document-units="px" inkscape:pageopacity="0.0" inkscape:pageshadow="2" inkscape:window-height="1478" inkscape:window-maximized="1" inkscape:window-width="2688" inkscape:window-x="0" inkscape:window-y="0" inkscape:zoom="16" showgrid="false" units="px">
	</sodipodi:namedview>
<g id="layer1" transform="translate(0,-1022.3622)" inkscape:groupmode="layer" inkscape:label="Calque 1">
	
		<path id="rect3338" inkscape:connector-curvature="0" inkscape:transform-center-x="-2.1875" sodipodi:nodetypes="cccc" class="st0" d="
		M10.2,1025.4l14,12l-14,12L10.2,1025.4z"/>
</g>
</svg>
